{
    "name": "SPINEBASE",
    "X": 0.06374992430210114,
    "Y": 0.7086894512176514,
    "Z": -0.10011792182922363,
    "child_joints": [
        {
            "name": "HIPRIGHT",
            "X": -0.0049523040652275089,
            "Y": 0.6456621885299683,
            "Z": -0.16323262453079225,
            "child_joints": [
                {
                    "name": "KNEERIGHT",
                    "X": 0.10894569754600525,
                    "Y": 0.2821296453475952,
                    "Z": -0.29024234414100649,
                    "child_joints": [
                        {
                            "name": "ANKLERIGHT",
                            "X": -0.0033879727125167848,
                            "Y": 0.17430399358272553,
                            "Z": -0.625372588634491,
                            "child_joints": [
                                {
                                    "name": "FOOTRIGHT",
                                    "X": 0.12424329668283463,
                                    "Y": 0.07751844823360443,
                                    "Z": -0.6276659369468689,
                                    "child_joints": []
                                }
                            ]
                        }
                    ]
                }
            ]
        },
        {
            "name": "SPINEMID",
            "X": 0.05733714997768402,
            "Y": 0.8454388380050659,
            "Z": -0.09170722961425781,
            "child_joints": [
                {
                    "name": "SPINESHOULDER",
                    "X": 0.061261389404535297,
                    "Y": 1.1070958375930787,
                    "Z": -0.1009519100189209,
                    "child_joints": [
                        {
                            "name": "SHOULDERRIGHT",
                            "X": -0.058370694518089297,
                            "Y": 1.2217419147491456,
                            "Z": -0.2180778980255127,
                            "child_joints": [
                                {
                                    "name": "ELBOWRIGHT",
                                    "X": -0.11646410822868347,
                                    "Y": 0.9502685070037842,
                                    "Z": -0.19552814960479737,
                                    "child_joints": [
                                        {
                                            "name": "WRISTRIGHT",
                                            "X": -0.0819346159696579,
                                            "Y": 0.7792822122573853,
                                            "Z": -0.38370639085769656,
                                            "child_joints": [
                                                {
                                                    "name": "THUMBRIGHT",
                                                    "X": -0.08777880668640137,
                                                    "Y": 0.6813952326774597,
                                                    "Z": -0.3848664164543152,
                                                    "child_joints": []
                                                },
                                                {
                                                    "name": "HANDRIGHT",
                                                    "X": -0.11659952998161316,
                                                    "Y": 0.7066288590431213,
                                                    "Z": -0.34058982133865359,
                                                    "child_joints": [
                                                        {
                                                            "name": "HANDTIPRIGHT",
                                                            "X": -0.14801780879497529,
                                                            "Y": 0.6583993434906006,
                                                            "Z": -0.31161409616470339,
                                                            "child_joints": []
                                                        }
                                                    ]
                                                }
                                            ]
                                        }
                                    ]
                                }
                            ]
                        },
                        {
                            "name": "NECK",
                            "X": 0.06170566752552986,
                            "Y": 1.2640173435211182,
                            "Z": -0.10399675369262696,
                            "child_joints": [
                                {
                                    "name": "HEAD",
                                    "X": 0.06608941406011582,
                                    "Y": 1.3429229259490967,
                                    "Z": -0.10610902309417725,
                                    "child_joints": []
                                }
                            ]
                        },
                        {
                            "name": "SHOULDERLEFT",
                            "X": 0.18253451585769654,
                            "Y": 1.2279605865478516,
                            "Z": -0.028777241706848146,
                            "child_joints": [
                                {
                                    "name": "ELBOWLEFT",
                                    "X": 0.2903186082839966,
                                    "Y": 0.9436337947845459,
                                    "Z": 0.05208849906921387,
                                    "child_joints": [
                                        {
                                            "name": "WRISTLEFT",
                                            "X": 0.13589343428611756,
                                            "Y": 1.0309531688690186,
                                            "Z": 0.2573055028915405,
                                            "child_joints": [
                                                {
                                                    "name": "THUMBLEFT",
                                                    "X": 0.05009794607758522,
                                                    "Y": 1.0607661008834839,
                                                    "Z": 0.2927212715148926,
                                                    "child_joints": []
                                                },
                                                {
                                                    "name": "HANDLEFT",
                                                    "X": 0.10093583166599274,
                                                    "Y": 1.0486540794372559,
                                                    "Z": 0.3184877634048462,
                                                    "child_joints": [
                                                        {
                                                            "name": "HANDTIPLEFT",
                                                            "X": 0.08271907269954682,
                                                            "Y": 1.0500473976135255,
                                                            "Z": 0.3807107210159302,
                                                            "child_joints": []
                                                        }
                                                    ]
                                                }
                                            ]
                                        }
                                    ]
                                }
                            ]
                        }
                    ]
                }
            ]
        },
        {
            "name": "HIPLEFT",
            "X": 0.14360415935516358,
            "Y": 0.6456621289253235,
            "Z": -0.05156219005584717,
            "child_joints": [
                {
                    "name": "KNEELEFT",
                    "X": 0.014667365700006485,
                    "Y": 0.26657557487487795,
                    "Z": -0.06030789017677307,
                    "child_joints": [
                        {
                            "name": "ANKLELEFT",
                            "X": -0.2740764319896698,
                            "Y": 0.18675930798053742,
                            "Z": -0.2776806652545929,
                            "child_joints": [
                                {
                                    "name": "FOOTELFT",
                                    "X": -0.13763007521629334,
                                    "Y": 0.11219055950641632,
                                    "Z": -0.2627668082714081,
                                    "child_joints": []
                                }
                            ]
                        }
                    ]
                }
            ]
        }
    ]
}