{
    "name": "SPINEBASE",
    "X": -0.20327448844909669,
    "Y": 0.9225414991378784,
    "Z": -0.06083978712558746,
    "child_joints": [
        {
            "name": "HIPRIGHT",
            "X": -0.1117519959807396,
            "Y": 0.8588519096374512,
            "Z": -0.04524548351764679,
            "child_joints": [
                {
                    "name": "KNEERIGHT",
                    "X": -0.06431426107883454,
                    "Y": 0.4618748724460602,
                    "Z": -0.08291451632976532,
                    "child_joints": [
                        {
                            "name": "ANKLERIGHT",
                            "X": 0.0152197927236557,
                            "Y": 0.10100899636745453,
                            "Z": -0.08563046902418137,
                            "child_joints": [
                                {
                                    "name": "FOOTRIGHT",
                                    "X": 0.0785941630601883,
                                    "Y": -0.009230159223079682,
                                    "Z": -0.18306425213813783,
                                    "child_joints": []
                                }
                            ]
                        }
                    ]
                }
            ]
        },
        {
            "name": "SPINEMID",
            "X": -0.20457051694393159,
            "Y": 1.0594446659088135,
            "Z": -0.05258680880069733,
            "child_joints": [
                {
                    "name": "SPINESHOULDER",
                    "X": -0.21498706936836244,
                    "Y": 1.3176677227020264,
                    "Z": -0.09474839270114899,
                    "child_joints": [
                        {
                            "name": "SHOULDERRIGHT",
                            "X": -0.06018956005573273,
                            "Y": 1.4465022087097169,
                            "Z": -0.06997980177402497,
                            "child_joints": [
                                {
                                    "name": "ELBOWRIGHT",
                                    "X": 0.15200947225093842,
                                    "Y": 1.2909892797470093,
                                    "Z": 0.021499499678611757,
                                    "child_joints": [
                                        {
                                            "name": "WRISTRIGHT",
                                            "X": 0.19204901158809663,
                                            "Y": 1.0376636981964112,
                                            "Z": 0.02941201627254486,
                                            "child_joints": [
                                                {
                                                    "name": "THUMBRIGHT",
                                                    "X": 0.16664676368236543,
                                                    "Y": 0.9434008598327637,
                                                    "Z": 0.038716718554496768,
                                                    "child_joints": []
                                                },
                                                {
                                                    "name": "HANDRIGHT",
                                                    "X": 0.22377969324588777,
                                                    "Y": 0.952034592628479,
                                                    "Z": 0.029279634356498719,
                                                    "child_joints": [
                                                        {
                                                            "name": "HANDTIPRIGHT",
                                                            "X": 0.250569224357605,
                                                            "Y": 0.893722414970398,
                                                            "Z": 0.03517960011959076,
                                                            "child_joints": []
                                                        }
                                                    ]
                                                }
                                            ]
                                        }
                                    ]
                                }
                            ]
                        },
                        {
                            "name": "NECK",
                            "X": -0.22067132592201234,
                            "Y": 1.471938133239746,
                            "Z": -0.12307097017765045,
                            "child_joints": [
                                {
                                    "name": "HEAD",
                                    "X": -0.2393425852060318,
                                    "Y": 1.547508716583252,
                                    "Z": -0.1368640810251236,
                                    "child_joints": []
                                }
                            ]
                        },
                        {
                            "name": "SHOULDERLEFT",
                            "X": -0.3608302175998688,
                            "Y": 1.4283323287963868,
                            "Z": -0.12649370729923249,
                            "child_joints": [
                                {
                                    "name": "ELBOWLEFT",
                                    "X": -0.5763375163078308,
                                    "Y": 1.2006551027297974,
                                    "Z": -0.15329302847385407,
                                    "child_joints": [
                                        {
                                            "name": "WRISTLEFT",
                                            "X": -0.7466757297515869,
                                            "Y": 1.149756908416748,
                                            "Z": -0.3581833839416504,
                                            "child_joints": [
                                                {
                                                    "name": "THUMBLEFT",
                                                    "X": -0.7264007925987244,
                                                    "Y": 1.0857073068618775,
                                                    "Z": -0.42882728576660159,
                                                    "child_joints": []
                                                },
                                                {
                                                    "name": "HANDLEFT",
                                                    "X": -0.7759873867034912,
                                                    "Y": 1.0992186069488526,
                                                    "Z": -0.401373028755188,
                                                    "child_joints": [
                                                        {
                                                            "name": "HANDTIPLEFT",
                                                            "X": -0.8143353462219238,
                                                            "Y": 1.0516929626464844,
                                                            "Z": -0.42319583892822268,
                                                            "child_joints": []
                                                        }
                                                    ]
                                                }
                                            ]
                                        }
                                    ]
                                }
                            ]
                        }
                    ]
                }
            ]
        },
        {
            "name": "HIPLEFT",
            "X": -0.2950931191444397,
            "Y": 0.8588519096374512,
            "Z": -0.07566513121128082,
            "child_joints": [
                {
                    "name": "KNEELEFT",
                    "X": -0.3573605716228485,
                    "Y": 0.46321380138397219,
                    "Z": -0.07462967932224274,
                    "child_joints": [
                        {
                            "name": "ANKLELEFT",
                            "X": -0.3734995722770691,
                            "Y": 0.11320361495018006,
                            "Z": -0.19388116896152497,
                            "child_joints": [
                                {
                                    "name": "FOOTELFT",
                                    "X": -0.36692172288894656,
                                    "Y": 0.07587030529975891,
                                    "Z": -0.34541553258895876,
                                    "child_joints": []
                                }
                            ]
                        }
                    ]
                }
            ]
        }
    ]
}